(module LOGO (layer F.Cu)
  (at 0 0)
 (fp_text reference "G***" (at 0 0) (layer F.SilkS) hide
  (effects (font (thickness 0.3)))
  )
  (fp_text value "LOGO" (at 0.75 0) (layer F.SilkS) hide
  (effects (font (thickness 0.3)))
  )
  (fp_poly (pts (xy -22.013333 30.480000) (xy -23.389166 30.480000) (xy -24.128755 30.489278) (xy -24.540697 30.541638) (xy -24.720634 30.673864) (xy -24.764206 30.922741) (xy -24.765000 31.009166) (xy -24.738109 31.302437)
     (xy -24.591168 31.460774) (xy -24.224771 31.525596) (xy -23.539514 31.538321) (xy -23.495000 31.538333) (xy -22.225000 31.538333) (xy -22.225000 33.231666) (xy -24.765000 33.231666) (xy -24.765000 34.501666)
     (xy -22.013333 34.501666) (xy -22.013333 36.406666) (xy -26.881666 36.406666) (xy -26.881666 28.575000) (xy -22.013333 28.575000) (xy -22.013333 30.480000) )(layer F.SilkS) (width  0.010000)
  )
  (fp_poly (pts (xy -16.273753 28.473319) (xy -15.430598 28.781082) (xy -14.597588 29.354772) (xy -13.918665 30.075591) (xy -13.575370 30.700312) (xy -13.357021 31.326666) (xy -14.371538 31.326666) (xy -15.140005 31.259428)
     (xy -15.634304 31.031171) (xy -15.769166 30.903333) (xy -16.336420 30.558934) (xy -17.076097 30.462600) (xy -17.820717 30.610057) (xy -18.378103 30.969892) (xy -18.694792 31.555693) (xy -18.834997 32.333878)
     (xy -18.786874 33.116095) (xy -18.549768 33.699595) (xy -17.928204 34.206619) (xy -17.164111 34.394845) (xy -16.390771 34.262532) (xy -15.741462 33.807937) (xy -15.682439 33.737046) (xy -15.315293 33.401359)
     (xy -14.812030 33.254656) (xy -14.309953 33.231666) (xy -13.694156 33.267564) (xy -13.400957 33.421799) (xy -13.405274 33.764184) (xy -13.682020 34.364534) (xy -13.815603 34.607500) (xy -14.525439 35.469452)
     (xy -15.485920 36.060541) (xy -16.604477 36.357721) (xy -17.788537 36.337945) (xy -18.945529 35.978166) (xy -19.069625 35.915553) (xy -20.032776 35.183077) (xy -20.681810 34.182153) (xy -20.996620 32.948912)
     (xy -21.024463 32.402714) (xy -20.838868 31.089985) (xy -20.316666 29.993887) (xy -19.505822 29.154094) (xy -18.454303 28.610280) (xy -17.210074 28.402118) (xy -16.273753 28.473319) )(layer F.SilkS) (width  0.010000)
  )
  (fp_poly (pts (xy -7.882049 28.446755) (xy -6.784241 28.803161) (xy -5.834540 29.441352) (xy -5.094794 30.315851) (xy -4.626853 31.381185) (xy -4.492564 32.591877) (xy -4.527929 32.986507) (xy -4.883357 34.172386)
     (xy -5.552239 35.142323) (xy -6.465853 35.862459) (xy -7.555478 36.298935) (xy -8.752394 36.417892) (xy -9.987879 36.185471) (xy -10.547715 35.952487) (xy -11.524441 35.260367) (xy -12.196352 34.353316)
     (xy -12.566326 33.307152) (xy -12.601957 32.749709) (xy -10.463804 32.749709) (xy -10.364009 33.149035) (xy -9.963085 33.849220) (xy -9.449107 34.195760) (xy -8.904335 34.416036) (xy -8.527907 34.467908)
     (xy -8.104872 34.352495) (xy -7.742210 34.204650) (xy -7.124196 33.787332) (xy -6.781190 33.149640) (xy -6.651404 32.217190) (xy -6.873871 31.418896) (xy -7.400409 30.826566) (xy -8.182834 30.512010)
     (xy -8.572500 30.480000) (xy -9.447196 30.657791) (xy -10.086139 31.143252) (xy -10.441088 31.864514) (xy -10.463804 32.749709) (xy -12.601957 32.749709) (xy -12.637243 32.197691) (xy -12.411983 31.100752)
     (xy -11.893426 30.092151) (xy -11.084451 29.247707) (xy -10.274590 28.761195) (xy -9.066115 28.417607) (xy -7.882049 28.446755) )(layer F.SilkS) (width  0.010000)
  )
  (fp_poly (pts (xy -1.270000 34.501666) (xy 1.717674 34.501666) (xy 1.652587 35.401250) (xy 1.587500 36.300833) (xy -0.751931 36.360291) (xy -1.708379 36.371655) (xy -2.504119 36.356797) (xy -3.046702 36.318996)
     (xy -3.239014 36.272096) (xy -3.286584 36.022343) (xy -3.327782 35.419918) (xy -3.359950 34.535466) (xy -3.380428 33.439631) (xy -3.386666 32.349722) (xy -3.386666 28.575000) (xy -1.270000 28.575000)
     (xy -1.270000 34.501666) )(layer F.SilkS) (width  0.010000)
  )
  (fp_poly (pts (xy 7.301965 28.570574) (xy 8.353312 29.035631) (xy 9.224364 29.785026) (xy 9.711024 30.532861) (xy 10.055442 31.645559) (xy 10.099118 32.834049) (xy 9.860478 33.978282) (xy 9.357946 34.958209)
     (xy 8.965064 35.393177) (xy 8.055044 35.955623) (xy 6.926870 36.296740) (xy 5.736289 36.392544) (xy 4.639048 36.219054) (xy 4.339167 36.105483) (xy 3.304496 35.430277) (xy 2.555989 34.509712)
     (xy 2.111103 33.425551) (xy 2.000617 32.385000) (xy 4.233334 32.385000) (xy 4.399309 33.315189) (xy 4.851186 33.979767) (xy 5.519891 34.343784) (xy 6.336353 34.372288) (xy 7.231497 34.030328)
     (xy 7.345525 33.959767) (xy 7.764936 33.460702) (xy 7.959698 32.747993) (xy 7.936853 31.962298) (xy 7.703439 31.244278) (xy 7.266498 30.734594) (xy 7.181552 30.683577) (xy 6.458935 30.484720)
     (xy 5.641275 30.526096) (xy 4.927108 30.786977) (xy 4.723226 30.940229) (xy 4.386705 31.387430) (xy 4.247292 31.989381) (xy 4.233334 32.385000) (xy 2.000617 32.385000) (xy 1.987297 32.259560)
     (xy 2.202032 31.093500) (xy 2.772766 30.009137) (xy 2.982104 29.750127) (xy 3.910394 28.979630) (xy 4.996083 28.532753) (xy 6.154748 28.399674) (xy 7.301965 28.570574) )(layer F.SilkS) (width  0.010000)
  )
  (fp_poly (pts (xy 15.962236 28.557907) (xy 16.974112 28.966182) (xy 17.816874 29.658109) (xy 18.237725 30.268333) (xy 18.632633 31.009166) (xy 17.548176 31.073947) (xy 16.703829 31.056190) (xy 16.176941 30.870642)
     (xy 16.099777 30.809364) (xy 15.645432 30.590656) (xy 14.992532 30.483009) (xy 14.868280 30.480000) (xy 14.034905 30.653072) (xy 13.456657 31.153296) (xy 13.159032 31.952183) (xy 13.123334 32.429827)
     (xy 13.216755 33.118360) (xy 13.561139 33.687697) (xy 13.768153 33.909050) (xy 14.249625 34.323245) (xy 14.678031 34.468294) (xy 15.162873 34.432177) (xy 15.880319 34.245859) (xy 16.328283 33.997844)
     (xy 16.478348 33.744280) (xy 16.302098 33.541313) (xy 15.771116 33.445091) (xy 15.663334 33.443333) (xy 14.816667 33.443333) (xy 14.816667 31.750000) (xy 18.838334 31.750000) (xy 18.837153 32.332083)
     (xy 18.664638 33.526691) (xy 18.192752 34.623102) (xy 17.482623 35.518806) (xy 16.595379 36.111292) (xy 16.579598 36.117947) (xy 15.698688 36.337120) (xy 14.662223 36.382804) (xy 13.681414 36.255712)
     (xy 13.229167 36.106659) (xy 12.427650 35.582653) (xy 11.707821 34.828115) (xy 11.232711 34.014045) (xy 11.231799 34.011637) (xy 11.052890 33.177724) (xy 11.021194 32.162422) (xy 11.132696 31.179740)
     (xy 11.295386 30.622068) (xy 11.897442 29.676046) (xy 12.748848 28.992354) (xy 13.765911 28.575257) (xy 14.864938 28.429020) (xy 15.962236 28.557907) )(layer F.SilkS) (width  0.010000)
  )
  (fp_poly (pts (xy 21.849035 29.829345) (xy 22.555919 31.083690) (xy 23.168119 29.914403) (xy 23.528952 29.283877) (xy 23.850666 28.821917) (xy 24.034970 28.647398) (xy 24.388835 28.601728) (xy 24.983025 28.600906)
     (xy 25.263387 28.615256) (xy 26.237151 28.680833) (xy 24.870757 31.009166) (xy 24.306768 31.979368) (xy 23.924032 32.685250) (xy 23.687253 33.226247) (xy 23.561140 33.701795) (xy 23.510399 34.211332)
     (xy 23.499737 34.854293) (xy 23.499682 34.872083) (xy 23.495000 36.406666) (xy 22.577778 36.406666) (xy 21.983810 36.376645) (xy 21.585127 36.301276) (xy 21.519445 36.265555) (xy 21.450343 35.998503)
     (xy 21.400043 35.426691) (xy 21.378519 34.668598) (xy 21.378334 34.589469) (xy 21.369258 33.918892) (xy 21.317424 33.395130) (xy 21.185920 32.911049) (xy 20.937836 32.359516) (xy 20.536259 31.633396)
     (xy 20.108334 30.903333) (xy 19.612701 30.056753) (xy 19.207588 29.351337) (xy 18.935361 28.861802) (xy 18.838334 28.663586) (xy 19.029728 28.614837) (xy 19.522945 28.582661) (xy 19.990243 28.575000)
     (xy 21.142152 28.575000) (xy 21.849035 29.829345) )(layer F.SilkS) (width  0.010000)
  )
  (fp_poly (pts (xy -5.255245 17.949394) (xy -4.295174 18.373438) (xy -4.213272 18.429285) (xy -3.811534 18.817549) (xy -3.374843 19.384964) (xy -2.998042 19.988787) (xy -2.775977 20.486272) (xy -2.751666 20.629067)
     (xy -2.941455 20.696089) (xy -3.423588 20.737199) (xy -3.743441 20.743333) (xy -4.537026 20.664003) (xy -5.098127 20.390951) (xy -5.237040 20.271893) (xy -5.896559 19.890081) (xy -6.596063 19.800454)
     (xy -7.418632 19.980332) (xy -8.030239 20.465953) (xy -8.392045 21.176296) (xy -8.465209 22.030342) (xy -8.210891 22.947070) (xy -8.156995 23.056527) (xy -7.640594 23.655785) (xy -6.941242 23.923604)
     (xy -6.152662 23.848955) (xy -5.368575 23.420809) (xy -5.330268 23.389166) (xy -4.706539 23.004601) (xy -3.954310 22.864887) (xy -3.726528 22.860000) (xy -3.079022 22.900886) (xy -2.802448 23.072099)
     (xy -2.848327 23.446466) (xy -3.050270 23.875928) (xy -3.791816 24.869117) (xy -4.779316 25.569331) (xy -5.928709 25.948737) (xy -7.155932 25.979504) (xy -8.369590 25.637137) (xy -9.384935 24.977958)
     (xy -10.112077 24.102786) (xy -10.558023 23.081996) (xy -10.729779 21.985963) (xy -10.634351 20.885062) (xy -10.278746 19.849668) (xy -9.669969 18.950157) (xy -8.815026 18.256904) (xy -7.720924 17.840284)
     (xy -7.590874 17.815173) (xy -6.408866 17.753295) (xy -5.255245 17.949394) )(layer F.SilkS) (width  0.010000)
  )
  (fp_poly (pts (xy 23.918203 17.973167) (xy 24.925426 18.553158) (xy 25.347084 18.961393) (xy 25.870648 19.651195) (xy 26.041674 20.125027) (xy 25.855623 20.407968) (xy 25.307958 20.525101) (xy 25.062970 20.531666)
     (xy 24.076684 20.388389) (xy 23.552758 20.108333) (xy 22.782283 19.729005) (xy 21.997918 19.764641) (xy 21.247296 20.211366) (xy 21.150385 20.303717) (xy 20.670206 21.055414) (xy 20.524740 21.925764)
     (xy 20.706051 22.788197) (xy 21.206204 23.516141) (xy 21.359991 23.647018) (xy 21.839113 23.845188) (xy 22.466132 23.898009) (xy 23.108080 23.824106) (xy 23.631991 23.642104) (xy 23.904898 23.370629)
     (xy 23.918334 23.288663) (xy 23.731131 23.150027) (xy 23.267019 23.046425) (xy 23.124584 23.031527) (xy 22.616012 22.963478) (xy 22.390254 22.785321) (xy 22.332560 22.365159) (xy 22.330834 22.119166)
     (xy 22.330834 21.272500) (xy 24.425018 21.211551) (xy 26.519203 21.150602) (xy 26.390161 22.240155) (xy 26.053457 23.540406) (xy 25.416163 24.605037) (xy 24.537820 25.398943) (xy 23.477968 25.887020)
     (xy 22.296147 26.034160) (xy 21.051899 25.805259) (xy 20.628743 25.637137) (xy 19.580239 24.950218) (xy 18.823303 24.022323) (xy 18.370796 22.931116) (xy 18.235576 21.754263) (xy 18.430501 20.569427)
     (xy 18.968432 19.454273) (xy 19.498842 18.812825) (xy 20.462666 18.123896) (xy 21.587029 17.756001) (xy 22.772139 17.706603) (xy 23.918203 17.973167) )(layer F.SilkS) (width  0.010000)
  )
  (fp_poly (pts (xy -19.896666 25.823333) (xy -22.225000 25.823333) (xy -22.225000 22.648333) (xy -24.765000 22.648333) (xy -24.765000 25.823333) (xy -26.881666 25.823333) (xy -26.881666 17.780000) (xy -24.765000 17.780000)
     (xy -24.765000 20.743333) (xy -22.244342 20.743333) (xy -22.119166 17.885833) (xy -21.007916 17.821855) (xy -19.896666 17.757876) (xy -19.896666 25.823333) )(layer F.SilkS) (width  0.010000)
  )
  (fp_poly (pts (xy -14.443037 18.174734) (xy -13.985182 18.925876) (xy -13.423887 20.055576) (xy -12.717388 21.563793) (xy -12.693332 21.615275) (xy -12.142437 22.795683) (xy -11.652992 23.847654) (xy -11.253324 24.710038)
     (xy -10.971761 25.321687) (xy -10.836629 25.621453) (xy -10.830278 25.636942) (xy -10.981405 25.737623) (xy -11.445327 25.805302) (xy -11.946065 25.823333) (xy -12.641379 25.802447) (xy -13.040058 25.708676)
     (xy -13.267986 25.495356) (xy -13.373513 25.294166) (xy -13.538993 25.009961) (xy -13.783159 24.850894) (xy -14.217906 24.781183) (xy -14.955129 24.765048) (xy -15.028333 24.765000) (xy -15.793749 24.778470)
     (xy -16.247992 24.842735) (xy -16.502959 24.993576) (xy -16.670543 25.266773) (xy -16.683153 25.294166) (xy -16.869355 25.600065) (xy -17.151921 25.758838) (xy -17.656735 25.817151) (xy -18.110601 25.823333)
     (xy -18.740168 25.794230) (xy -19.141816 25.718944) (xy -19.226389 25.640891) (xy -19.118641 25.401271) (xy -18.859316 24.839460) (xy -18.476774 24.016450) (xy -17.999378 22.993237) (xy -17.988903 22.970849)
     (xy -15.580960 22.970849) (xy -15.282975 23.063587) (xy -15.028333 23.071666) (xy -14.568382 23.027567) (xy -14.444706 22.862244) (xy -14.477423 22.734502) (xy -14.632323 22.260010) (xy -14.734682 21.887835)
     (xy -14.919521 21.457348) (xy -15.125788 21.445627) (xy -15.312898 21.852673) (xy -15.321984 21.887835) (xy -15.476284 22.430953) (xy -15.579243 22.734502) (xy -15.580960 22.970849) (xy -17.988903 22.970849)
     (xy -17.455490 21.830815) (xy -17.356666 21.619928) (xy -16.642424 20.098848) (xy -16.075321 18.956576) (xy -15.613594 18.193071) (xy -15.215479 17.808289) (xy -14.839215 17.802191) (xy -14.443037 18.174734) )(layer F.SilkS) (width  0.010000)
  )
  (fp_poly (pts (xy 0.635000 19.261666) (xy 0.668985 20.137126) (xy 0.794085 20.622572) (xy 1.045019 20.747553) (xy 1.456505 20.541614) (xy 1.808187 20.260099) (xy 2.235023 19.730781) (xy 2.454290 18.990855)
     (xy 2.482518 18.778432) (xy 2.595056 17.780000) (xy 4.656667 17.780000) (xy 4.655486 18.573750) (xy 4.540541 19.683734) (xy 4.231912 20.704442) (xy 3.826979 21.409928) (xy 3.652398 21.646978)
     (xy 3.580510 21.875616) (xy 3.631482 22.184189) (xy 3.825483 22.661041) (xy 4.182681 23.394518) (xy 4.361418 23.750970) (xy 4.757596 24.550354) (xy 5.069811 25.200389) (xy 5.256768 25.613967)
     (xy 5.291667 25.713270) (xy 5.100089 25.773328) (xy 4.605527 25.813304) (xy 4.117067 25.823333) (xy 2.942467 25.823333) (xy 2.188567 24.235833) (xy 1.743850 23.369509) (xy 1.393463 22.858874)
     (xy 1.102850 22.656382) (xy 1.034833 22.648333) (xy 0.829776 22.692106) (xy 0.709413 22.881295) (xy 0.651882 23.302705) (xy 0.635320 24.043138) (xy 0.635000 24.235833) (xy 0.635000 25.823333)
     (xy -1.693333 25.823333) (xy -1.693333 17.780000) (xy 0.635000 17.780000) (xy 0.635000 19.261666) )(layer F.SilkS) (width  0.010000)
  )
  (fp_poly (pts (xy 8.466667 25.823333) (xy 6.138334 25.823333) (xy 6.138334 17.780000) (xy 8.466667 17.780000) (xy 8.466667 25.823333) )(layer F.SilkS) (width  0.010000)
  )
  (fp_poly (pts (xy 17.039167 17.885833) (xy 17.154341 25.823333) (xy 16.532766 25.823333) (xy 16.212961 25.770968) (xy 15.857182 25.580558) (xy 15.403449 25.202129) (xy 14.789783 24.585708) (xy 14.170092 23.918333)
     (xy 13.490548 23.185704) (xy 12.913095 22.583560) (xy 12.497208 22.172502) (xy 12.302367 22.013130) (xy 12.299913 22.012847) (xy 12.250083 22.208306) (xy 12.224715 22.732321) (xy 12.226833 23.490657)
     (xy 12.238772 23.917847) (xy 12.306710 25.823333) (xy 9.948334 25.823333) (xy 9.948334 17.780000) (xy 10.424584 17.789780) (xy 10.808907 17.947262) (xy 11.435249 18.388977) (xy 12.262744 19.084215)
     (xy 12.805834 19.579434) (xy 14.710834 21.359308) (xy 14.772148 19.558883) (xy 14.833463 17.758459) (xy 17.039167 17.885833) )(layer F.SilkS) (width  0.010000)
  )
  (fp_poly (pts (xy -21.234777 -35.966586) (xy -20.211279 -35.570963) (xy -19.401725 -34.860483) (xy -18.758516 -33.839321) (xy -18.587257 -33.487207) (xy -18.455426 -33.164671) (xy -18.357865 -32.812371) (xy -18.289415 -32.370965)
     (xy -18.244918 -31.781113) (xy -18.219216 -30.983473) (xy -18.207150 -29.918703) (xy -18.203562 -28.527461) (xy -18.203333 -27.452462) (xy -18.201679 -25.824043) (xy -18.194446 -24.571838) (xy -18.178232 -23.648733)
     (xy -18.149633 -23.007615) (xy -18.105246 -22.601368) (xy -18.041668 -22.382881) (xy -17.955494 -22.305038) (xy -17.843322 -22.320726) (xy -17.832917 -22.324692) (xy -16.543030 -22.815279) (xy -15.508780 -23.160012)
     (xy -14.598740 -23.384486) (xy -13.681484 -23.514296) (xy -12.625588 -23.575034) (xy -11.324166 -23.592228) (xy -10.042941 -23.585687) (xy -9.072381 -23.549471) (xy -8.300184 -23.471526) (xy -7.614049 -23.339804)
     (xy -6.901675 -23.142253) (xy -6.780793 -23.104684) (xy -4.295227 -22.120237) (xy -2.076662 -20.816868) (xy -0.139984 -19.206963) (xy 1.499925 -17.302910) (xy 2.828178 -15.117095) (xy 2.835858 -15.101797)
     (xy 3.345475 -13.991293) (xy 3.748711 -12.873886) (xy 4.060025 -11.674150) (xy 4.293876 -10.316663) (xy 4.464724 -8.726001) (xy 4.587028 -6.826738) (xy 4.635368 -5.715000) (xy 4.694845 -4.233949)
     (xy 4.751581 -3.100156) (xy 4.815742 -2.237744) (xy 4.897499 -1.570835) (xy 5.007019 -1.023552) (xy 5.154471 -0.520016) (xy 5.350024 0.015649) (xy 5.431198 0.223457) (xy 6.535562 2.455210)
     (xy 8.012430 4.510198) (xy 9.841543 6.369612) (xy 12.002644 8.014640) (xy 14.475476 9.426473) (xy 16.145284 10.172002) (xy 16.804266 10.460744) (xy 17.105389 10.661443) (xy 17.095518 10.810191)
     (xy 17.031372 10.854382) (xy 16.591992 10.975054) (xy 15.832362 11.061855) (xy 14.854284 11.113828) (xy 13.759559 11.130015) (xy 12.649990 11.109461) (xy 11.627378 11.051207) (xy 10.793525 10.954298)
     (xy 10.583334 10.914998) (xy 7.919710 10.146720) (xy 5.458510 9.028565) (xy 3.230104 7.581782) (xy 1.264861 5.827620) (xy -0.406849 3.787329) (xy -1.065171 2.764850) (xy -1.861555 1.225716)
     (xy -2.595846 -0.566244) (xy -3.233978 -2.493835) (xy -3.741885 -4.439865) (xy -4.085501 -6.287139) (xy -4.230758 -7.918464) (xy -4.233333 -8.134132) (xy -4.360304 -9.714003) (xy -4.766695 -11.050489)
     (xy -5.490723 -12.248099) (xy -5.927053 -12.765960) (xy -6.908725 -13.704293) (xy -7.910211 -14.343411) (xy -9.039247 -14.727171) (xy -10.403568 -14.899432) (xy -11.218333 -14.919970) (xy -12.300458 -14.899101)
     (xy -13.092464 -14.820497) (xy -13.725861 -14.664359) (xy -14.207576 -14.469941) (xy -15.600096 -13.604066) (xy -16.764434 -12.430732) (xy -17.509004 -11.252316) (xy -17.720319 -10.802076) (xy -17.876540 -10.387368)
     (xy -17.988384 -9.930893) (xy -18.066574 -9.355350) (xy -18.121829 -8.583439) (xy -18.164869 -7.537862) (xy -18.203552 -6.244167) (xy -18.245445 -4.869281) (xy -18.289448 -3.846825) (xy -18.344821 -3.105957)
     (xy -18.420823 -2.575835) (xy -18.526711 -2.185616) (xy -18.671743 -1.864459) (xy -18.805809 -1.635885) (xy -19.663332 -0.601809) (xy -20.691429 0.093213) (xy -21.821640 0.456896) (xy -22.985506 0.496951)
     (xy -24.114568 0.221094) (xy -25.140367 -0.362964) (xy -25.994442 -1.247507) (xy -26.608336 -2.424824) (xy -26.640768 -2.518669) (xy -26.685617 -2.863532) (xy -26.726165 -3.588986) (xy -26.762364 -4.652310)
     (xy -26.794163 -6.010783) (xy -26.821514 -7.621684) (xy -26.844368 -9.442293) (xy -26.862676 -11.429889) (xy -26.876389 -13.541750) (xy -26.885457 -15.735155) (xy -26.889832 -17.967385) (xy -26.889464 -20.195717)
     (xy -26.884306 -22.377431) (xy -26.874307 -24.469806) (xy -26.859418 -26.430122) (xy -26.839591 -28.215656) (xy -26.814776 -29.783689) (xy -26.784924 -31.091500) (xy -26.749986 -32.096366) (xy -26.709913 -32.755569)
     (xy -26.675771 -32.999878) (xy -26.131790 -34.186013) (xy -25.269852 -35.207230) (xy -24.799596 -35.579088) (xy -24.302182 -35.864542) (xy -23.763478 -36.021076) (xy -23.031744 -36.082983) (xy -22.542551 -36.089167)
     (xy -21.234777 -35.966586) )(layer F.SilkS) (width  0.010000)
  )
  (fp_poly (pts (xy 23.838754 -0.744753) (xy 24.925436 -0.331271) (xy 25.858278 0.366616) (xy 26.571003 1.303397) (xy 26.997334 2.433563) (xy 27.089851 3.323238) (xy 26.952346 4.346329) (xy 26.521079 5.288855)
     (xy 25.756776 6.212577) (xy 24.654203 7.153484) (xy 23.848277 7.720088) (xy 22.928092 8.296367) (xy 21.984013 8.833680) (xy 21.106408 9.283392) (xy 20.385642 9.596863) (xy 19.912080 9.725457)
     (xy 19.874456 9.726098) (xy 19.557687 9.652474) (xy 18.946585 9.463110) (xy 18.143266 9.190714) (xy 17.616793 9.002955) (xy 15.156662 7.953714) (xy 12.922006 6.686588) (xy 10.956929 5.235713)
     (xy 9.305537 3.635227) (xy 8.011934 1.919266) (xy 7.644974 1.284814) (xy 7.308132 0.628571) (xy 7.070313 0.118919) (xy 6.985000 -0.125503) (xy 7.118789 -0.090572) (xy 7.463081 0.182114)
     (xy 7.778750 0.475147) (xy 8.983938 1.373403) (xy 10.455289 2.031383) (xy 12.102449 2.437082) (xy 13.835067 2.578496) (xy 15.562790 2.443620) (xy 17.195265 2.020451) (xy 17.736040 1.798067)
     (xy 18.576679 1.353599) (xy 19.424008 0.813443) (xy 19.820570 0.516126) (xy 20.490737 0.023536) (xy 21.175179 -0.393491) (xy 21.468976 -0.536461) (xy 22.664508 -0.828320) (xy 23.838754 -0.744753) )(layer F.SilkS) (width  0.010000)
  )
  (fp_poly (pts (xy 22.462186 -20.148600) (xy 23.666031 -19.715514) (xy 24.746435 -19.008504) (xy 25.619634 -18.070781) (xy 26.201864 -16.945560) (xy 26.245861 -16.807826) (xy 26.364341 -15.697228) (xy 26.073851 -14.558007)
     (xy 25.386569 -13.404480) (xy 24.314675 -12.250961) (xy 22.870348 -11.111766) (xy 21.065766 -10.001210) (xy 19.968746 -9.429768) (xy 18.358755 -8.696049) (xy 16.755444 -8.076064) (xy 15.216705 -7.583433)
     (xy 13.800432 -7.231772) (xy 12.564518 -7.034701) (xy 11.566855 -7.005837) (xy 10.865336 -7.158799) (xy 10.708679 -7.251508) (xy 10.453258 -7.476929) (xy 10.535071 -7.601740) (xy 10.888663 -7.703865)
     (xy 11.783816 -8.126433) (xy 12.708454 -8.932516) (xy 13.636267 -10.085989) (xy 14.540949 -11.550726) (xy 15.396189 -13.290603) (xy 15.953535 -14.658678) (xy 16.772323 -16.551158) (xy 17.655774 -18.039209)
     (xy 18.615714 -19.138425) (xy 19.663968 -19.864400) (xy 20.019227 -20.020139) (xy 21.218664 -20.264545) (xy 22.462186 -20.148600) )(layer F.SilkS) (width  0.010000)
  )
  (fp_poly (pts (xy 15.991745 -23.204363) (xy 18.392914 -22.691069) (xy 20.399887 -21.937741) (xy 21.484167 -21.435291) (xy 20.637500 -21.272361) (xy 19.193128 -20.780433) (xy 17.861037 -19.887339) (xy 16.652546 -18.603033)
     (xy 15.578976 -16.937466) (xy 15.466732 -16.725885) (xy 14.612081 -15.083136) (xy 12.968124 -14.987813) (xy 11.234315 -14.714229) (xy 9.692700 -14.092312) (xy 8.303769 -13.099709) (xy 7.028013 -11.714065)
     (xy 6.910993 -11.560809) (xy 6.482202 -10.993031) (xy 6.165885 -10.578467) (xy 6.037558 -10.415455) (xy 5.926307 -10.523822) (xy 5.846983 -10.697350) (xy 5.728673 -11.167011) (xy 5.715000 -11.330415)
     (xy 5.616250 -11.874473) (xy 5.348678 -12.686648) (xy 4.955300 -13.668540) (xy 4.479135 -14.721750) (xy 3.963201 -15.747876) (xy 3.450513 -16.648519) (xy 3.260637 -16.944654) (xy 2.781639 -17.693344)
     (xy 2.424590 -18.315736) (xy 2.235737 -18.727396) (xy 2.222979 -18.839109) (xy 2.518780 -19.142751) (xy 3.089078 -19.597041) (xy 3.842761 -20.139226) (xy 4.688717 -20.706551) (xy 5.535832 -21.236263)
     (xy 6.292994 -21.665609) (xy 6.427019 -21.734620) (xy 8.655003 -22.628208) (xy 11.044187 -23.171790) (xy 13.515968 -23.364223) (xy 15.991745 -23.204363) )(layer F.SilkS) (width  0.010000)
  )
)
