EESchema Schematic File Version 4
EELAYER 30 0
EELAYER END
$Descr A4 11693 8268
encoding utf-8
Sheet 1 1
Title "Nayad Modular v0.1"
Date "2020-12-08"
Rev "REV3"
Comp "Hacking Ecology"
Comment1 ""
Comment2 ""
Comment3 ""
Comment4 ""
$EndDescr
$Comp
L Connector:Screw_Terminal_01x03 S1
U 1 1 5E6F04AF
P 1950 3100
F 0 "S1" H 2030 3142 50  0000 L CNN
F 1 "DS18B20" H 2030 3051 50  0000 L CNN
F 2 "TerminalBlock_Phoenix:TerminalBlock_Phoenix_MKDS-1,5-3_1x03_P5.00mm_Horizontal" H 1950 3100 50  0001 C CNN
F 3 "~" H 1950 3100 50  0001 C CNN
	1    1950 3100
	-1   0    0    1   
$EndComp
$Comp
L power:GND #PWR0101
U 1 1 5E73E963
P 2600 3200
F 0 "#PWR0101" H 2600 2950 50  0001 C CNN
F 1 "GND" H 2605 3027 50  0000 C CNN
F 2 "" H 2600 3200 50  0001 C CNN
F 3 "" H 2600 3200 50  0001 C CNN
	1    2600 3200
	1    0    0    -1  
$EndComp
Wire Wire Line
	2150 3000 2600 3000
Text Label 2900 3100 0    50   ~ 0
DS18B20_data
Wire Wire Line
	2150 3200 2600 3200
$Comp
L power:+3.3V #PWR0104
U 1 1 5E78D39B
P 2600 2550
F 0 "#PWR0104" H 2600 2400 50  0001 C CNN
F 1 "+3.3V" H 2615 2723 50  0000 C CNN
F 2 "" H 2600 2550 50  0001 C CNN
F 3 "" H 2600 2550 50  0001 C CNN
	1    2600 2550
	1    0    0    -1  
$EndComp
$Comp
L power:GND #PWR0110
U 1 1 5E7BE25E
P 10800 1100
F 0 "#PWR0110" H 10800 850 50  0001 C CNN
F 1 "GND" V 10805 972 50  0000 R CNN
F 2 "" H 10800 1100 50  0001 C CNN
F 3 "" H 10800 1100 50  0001 C CNN
	1    10800 1100
	1    0    0    -1  
$EndComp
Wire Wire Line
	2600 2550 2600 2750
Wire Wire Line
	2150 3100 2750 3100
Wire Wire Line
	2750 2750 2600 2750
Connection ~ 2600 2750
Wire Wire Line
	2600 2750 2600 3000
Wire Wire Line
	2750 3050 2750 3100
Connection ~ 2750 3100
Wire Wire Line
	2750 3100 2900 3100
$Comp
L Device:R R1
U 1 1 5E719459
P 2750 2900
F 0 "R1" H 2820 2946 50  0000 L CNN
F 1 "4.7K" V 2750 2800 50  0000 L CNN
F 2 "Resistor_THT:R_Axial_DIN0207_L6.3mm_D2.5mm_P10.16mm_Horizontal" V 2680 2900 50  0001 C CNN
F 3 "~" H 2750 2900 50  0001 C CNN
	1    2750 2900
	1    0    0    -1  
$EndComp
$Comp
L power:+3.3V #PWR0105
U 1 1 5E6F9B6D
P 1150 4800
F 0 "#PWR0105" H 1150 4650 50  0001 C CNN
F 1 "+3.3V" H 1165 4973 50  0000 C CNN
F 2 "" H 1150 4800 50  0001 C CNN
F 3 "" H 1150 4800 50  0001 C CNN
	1    1150 4800
	1    0    0    -1  
$EndComp
$Comp
L power:GND #PWR0106
U 1 1 5E6FA201
P 950 5950
F 0 "#PWR0106" H 950 5700 50  0001 C CNN
F 1 "GND" H 955 5777 50  0000 C CNN
F 2 "" H 950 5950 50  0001 C CNN
F 3 "" H 950 5950 50  0001 C CNN
	1    950  5950
	1    0    0    -1  
$EndComp
Text Label 1200 5400 2    50   ~ 0
RTC_SDA
Text Label 1450 1400 2    50   ~ 0
SD_CS
Text Label 1600 1600 2    50   ~ 0
SD_SI
Text Label 1450 1500 2    50   ~ 0
SD_CLK
Text Label 1600 1700 2    50   ~ 0
SD_SO
Wire Wire Line
	1900 1500 1450 1500
Text Label 10300 1900 0    50   ~ 0
SD_CLK
Text Label 10300 1800 0    50   ~ 0
SD_SO
Text Label 10550 1200 2    50   ~ 0
SD_SI
Wire Wire Line
	10150 1200 10550 1200
$Comp
L power:+3.3V #PWR0111
U 1 1 5E774978
P 2900 1200
F 0 "#PWR0111" H 2900 1050 50  0001 C CNN
F 1 "+3.3V" V 2915 1328 50  0000 L CNN
F 2 "" H 2900 1200 50  0001 C CNN
F 3 "" H 2900 1200 50  0001 C CNN
	1    2900 1200
	1    0    0    -1  
$EndComp
$Comp
L power:GND #PWR0112
U 1 1 5E7797E0
P 3300 2000
F 0 "#PWR0112" H 3300 1750 50  0001 C CNN
F 1 "GND" H 3305 1827 50  0000 C CNN
F 2 "" H 3300 2000 50  0001 C CNN
F 3 "" H 3300 2000 50  0001 C CNN
	1    3300 2000
	1    0    0    -1  
$EndComp
Wire Wire Line
	1900 1700 1600 1700
Wire Wire Line
	1600 1600 1900 1600
Wire Wire Line
	1900 1400 1450 1400
$Comp
L MicroSDmodule:4682-SDIO U4
U 1 1 5E7DFAEC
P 2400 1600
F 0 "U4" H 2400 2265 50  0000 C CNN
F 1 "4682" H 2400 2174 50  0000 C CNN
F 2 "ESP8266:4682-SDIO-microSD" H 2400 1600 50  0001 L BNN
F 3 "Manufacturer Recommendations" H 2400 1600 50  0001 L BNN
F 4 "Adafruit" H 2400 1600 50  0001 L BNN "Field4"
F 5 "N/A" H 2400 1600 50  0001 L BNN "Field5"
	1    2400 1600
	1    0    0    -1  
$EndComp
Text Label 10300 2000 0    50   ~ 0
SD_CS
Wire Wire Line
	10800 1100 10150 1100
Wire Wire Line
	2900 2000 3300 2000
Wire Wire Line
	7100 2950 7100 2900
Wire Wire Line
	7100 2550 7100 2600
Wire Wire Line
	7100 2600 7200 2600
Connection ~ 7200 2900
Wire Wire Line
	7100 2900 7200 2900
Wire Wire Line
	7200 2900 8550 2900
$Comp
L Device:CP C1
U 1 1 5E6E9900
P 7200 2750
F 0 "C1" H 7318 2796 50  0000 L CNN
F 1 "680uF" H 7318 2705 50  0000 L CNN
F 2 "Capacitor_THT:CP_Radial_D8.0mm_P3.80mm" H 7238 2600 50  0001 C CNN
F 3 "~" H 7200 2750 50  0001 C CNN
	1    7200 2750
	-1   0    0    1   
$EndComp
$Comp
L Device:Battery BT1
U 1 1 5E81379C
P 5700 2750
F 0 "BT1" H 5808 2796 50  0000 L CNN
F 1 "Battery" H 5808 2705 50  0000 L CNN
F 2 "Connector_JST:JST_XH_S2B-XH-A_1x02_P2.50mm_Horizontal" V 5700 2810 50  0001 C CNN
F 3 "~" V 5700 2810 50  0001 C CNN
	1    5700 2750
	-1   0    0    1   
$EndComp
$Comp
L power:GND #PWR0103
U 1 1 5E8467D1
P 5700 2250
F 0 "#PWR0103" H 5700 2000 50  0001 C CNN
F 1 "GND" H 5705 2077 50  0000 C CNN
F 2 "" H 5700 2250 50  0001 C CNN
F 3 "" H 5700 2250 50  0001 C CNN
	1    5700 2250
	-1   0    0    1   
$EndComp
Wire Wire Line
	5700 2950 5700 3200
Connection ~ 5700 2950
Wire Wire Line
	5700 2550 5700 2250
Connection ~ 5700 2550
$Comp
L power:VCC #PWR0102
U 1 1 5E6EDD6A
P 5700 3200
F 0 "#PWR0102" H 5700 3050 50  0001 C CNN
F 1 "VCC" H 5717 3373 50  0000 C CNN
F 2 "" H 5700 3200 50  0001 C CNN
F 3 "" H 5700 3200 50  0001 C CNN
	1    5700 3200
	-1   0    0    1   
$EndComp
$Comp
L power:PWR_FLAG #FLG0102
U 1 1 5E81A02A
P 6450 2300
F 0 "#FLG0102" H 6450 2375 50  0001 C CNN
F 1 "PWR_FLAG" H 6450 2473 50  0000 C CNN
F 2 "" H 6450 2300 50  0001 C CNN
F 3 "~" H 6450 2300 50  0001 C CNN
	1    6450 2300
	1    0    0    -1  
$EndComp
Wire Wire Line
	5700 2550 6450 2550
Connection ~ 6450 2550
Wire Wire Line
	6450 2300 6450 2550
$Comp
L power:PWR_FLAG #FLG0101
U 1 1 5E819973
P 6450 3150
F 0 "#FLG0101" H 6450 3225 50  0001 C CNN
F 1 "PWR_FLAG" H 6450 3323 50  0000 C CNN
F 2 "" H 6450 3150 50  0001 C CNN
F 3 "~" H 6450 3150 50  0001 C CNN
	1    6450 3150
	-1   0    0    1   
$EndComp
Wire Wire Line
	5700 2950 6450 2950
Connection ~ 6450 2950
Wire Wire Line
	6450 3150 6450 2950
Wire Wire Line
	7200 2600 8150 2600
Wire Wire Line
	8150 2600 8150 2400
Wire Wire Line
	8150 2400 8550 2400
Connection ~ 7200 2600
Wire Wire Line
	10150 1300 10550 1300
Text Label 10850 2400 2    50   ~ 0
DS18B20_data
Wire Wire Line
	10150 2400 10850 2400
$Comp
L Modular_Nayad-rescue:ESP32-DEVKITC-32D-ESP32-DEVKITC-32D U1
U 1 1 5F568223
P 9350 2000
F 0 "U1" H 9350 3167 50  0000 C CNN
F 1 "ESP32-DEVKITC-32D" H 9350 3076 50  0000 C CNN
F 2 "ESP32:MODULE_ESP32-DEVKITC-32D" H 9350 2000 50  0001 L BNN
F 3 "4" H 9350 2000 50  0001 L BNN
F 4 "Espressif Systems" H 9350 2000 50  0001 L BNN "Field4"
	1    9350 2000
	1    0    0    -1  
$EndComp
Text Label 10150 1600 0    50   ~ 0
RTC_SDA
Text Label 10550 1300 2    50   ~ 0
RTC_SCL
Wire Wire Line
	8250 4600 8250 4300
$Comp
L power:+3.3V #PWR0108
U 1 1 5F6293C4
P 8250 4300
F 0 "#PWR0108" H 8250 4150 50  0001 C CNN
F 1 "+3.3V" H 8265 4473 50  0000 C CNN
F 2 "" H 8250 4300 50  0001 C CNN
F 3 "" H 8250 4300 50  0001 C CNN
	1    8250 4300
	1    0    0    -1  
$EndComp
$Comp
L power:GND #PWR0109
U 1 1 5F62AAEE
P 8500 4300
F 0 "#PWR0109" H 8500 4050 50  0001 C CNN
F 1 "GND" H 8505 4127 50  0000 C CNN
F 2 "" H 8500 4300 50  0001 C CNN
F 3 "" H 8500 4300 50  0001 C CNN
	1    8500 4300
	1    0    0    -1  
$EndComp
Wire Wire Line
	8150 4600 8150 4300
Text Label 10550 1500 0    50   ~ 0
RX
Wire Wire Line
	10150 1500 10550 1500
Text Label 10550 1400 0    50   ~ 0
TX
Wire Wire Line
	10150 1400 10550 1400
Text Label 8150 4300 1    50   ~ 0
RX
Text Label 8050 4300 1    50   ~ 0
TX
Wire Wire Line
	8050 4600 8050 4300
Text Label 8550 1200 2    50   ~ 0
EN
Text Label 7100 5050 2    50   ~ 0
34
Text Label 7100 5150 2    50   ~ 0
35
Text Label 7100 5250 2    50   ~ 0
33
Text Label 7100 5350 2    50   ~ 0
25
Text Label 7100 5450 2    50   ~ 0
26
Text Label 7100 5550 2    50   ~ 0
27
Text Label 7100 5650 2    50   ~ 0
14
Text Label 7100 4750 2    50   ~ 0
EN
Text Label 7100 4850 2    50   ~ 0
VP
Text Label 7100 4950 2    50   ~ 0
VN
Text Label 8550 1400 2    50   ~ 0
VN
Text Label 8550 1500 2    50   ~ 0
34
Text Label 8550 1600 2    50   ~ 0
35
Text Label 8550 2100 2    50   ~ 0
27
Text Label 8550 2200 2    50   ~ 0
14
Text Label 8550 2300 2    50   ~ 0
12
Text Label 8550 2600 2    50   ~ 0
SD2
Text Label 8550 2700 2    50   ~ 0
SD3
Text Label 8550 2800 2    50   ~ 0
CMD
Text Label 8550 2500 2    50   ~ 0
13
Text Label 7100 5750 2    50   ~ 0
12
Text Label 9450 5800 2    50   ~ 0
SD3
Text Label 9450 5700 2    50   ~ 0
SD2
Text Label 9450 5600 2    50   ~ 0
13
Text Label 9450 5500 2    50   ~ 0
CLK
Text Label 9450 5400 2    50   ~ 0
SDO
Text Label 9450 5300 2    50   ~ 0
SD1
Text Label 10150 2100 0    50   ~ 0
17
Text Label 10150 2200 0    50   ~ 0
16
Text Label 10150 2300 0    50   ~ 0
04
Text Label 9450 5200 2    50   ~ 0
15
Text Label 9450 5100 2    50   ~ 0
02
Text Label 9450 5000 2    50   ~ 0
04
Text Label 9450 4900 2    50   ~ 0
16
Text Label 9450 4800 2    50   ~ 0
17
Text Label 10150 2500 0    50   ~ 0
02
Text Label 10150 2600 0    50   ~ 0
15
Text Label 10150 2700 0    50   ~ 0
SD1
Text Label 10150 2800 0    50   ~ 0
SDO
Text Label 10150 2900 0    50   ~ 0
CLK
$Comp
L power:GND #PWR0115
U 1 1 5F59DAB5
P 10850 1700
F 0 "#PWR0115" H 10850 1450 50  0001 C CNN
F 1 "GND" H 10855 1527 50  0000 C CNN
F 2 "" H 10850 1700 50  0001 C CNN
F 3 "" H 10850 1700 50  0001 C CNN
	1    10850 1700
	1    0    0    -1  
$EndComp
Wire Wire Line
	7900 1700 8550 1700
Text Label 7900 1700 0    50   ~ 0
sensor_data
$Comp
L power:+3.3V #PWR0107
U 1 1 5F59861D
P 8550 1100
F 0 "#PWR0107" H 8550 950 50  0001 C CNN
F 1 "+3.3V" H 8565 1273 50  0000 C CNN
F 2 "" H 8550 1100 50  0001 C CNN
F 3 "" H 8550 1100 50  0001 C CNN
	1    8550 1100
	1    0    0    -1  
$EndComp
Text Label 9450 5900 2    50   ~ 0
CMD
Wire Wire Line
	8350 4600 8350 4300
Wire Wire Line
	8350 4300 8500 4300
$Comp
L Connector_Generic:Conn_01x13 J1
U 1 1 5F5B7067
P 7300 5250
F 0 "J1" H 7328 5276 50  0000 L CNN
F 1 "Conn_01x13_Female" H 7328 5185 50  0000 L CNN
F 2 "Connector_PinSocket_2.54mm:PinSocket_1x13_P2.54mm_Vertical" H 7300 5250 50  0001 C CNN
F 3 "~" H 7300 5250 50  0001 C CNN
	1    7300 5250
	1    0    0    -1  
$EndComp
Wire Wire Line
	7100 5850 6750 5850
$Comp
L power:+3.3V #PWR0116
U 1 1 5F5C12CE
P 6750 5850
F 0 "#PWR0116" H 6750 5700 50  0001 C CNN
F 1 "+3.3V" H 6765 6023 50  0000 C CNN
F 2 "" H 6750 5850 50  0001 C CNN
F 3 "" H 6750 5850 50  0001 C CNN
	1    6750 5850
	1    0    0    -1  
$EndComp
Wire Wire Line
	7100 4650 6800 4650
$Comp
L power:GND #PWR0117
U 1 1 5F5C2DF2
P 6800 4650
F 0 "#PWR0117" H 6800 4400 50  0001 C CNN
F 1 "GND" H 6805 4477 50  0000 C CNN
F 2 "" H 6800 4650 50  0001 C CNN
F 3 "" H 6800 4650 50  0001 C CNN
	1    6800 4650
	1    0    0    -1  
$EndComp
$Comp
L Connector_Generic:Conn_01x13 J3
U 1 1 5F5DA5CB
P 9650 5300
F 0 "J3" H 9678 5276 50  0000 L CNN
F 1 "Conn_01x13_Female" H 9678 5185 50  0000 L CNN
F 2 "Connector_PinSocket_2.54mm:PinSocket_1x13_P2.54mm_Vertical" H 9650 5300 50  0001 C CNN
F 3 "~" H 9650 5300 50  0001 C CNN
	1    9650 5300
	1    0    0    -1  
$EndComp
$Comp
L Connector_Generic:Conn_01x04 J2
U 1 1 5F5DC1A5
P 8250 4800
F 0 "J2" V 8096 4948 50  0000 L CNN
F 1 "Conn_01x04_Female" V 8187 4948 50  0000 L CNN
F 2 "Connector_PinSocket_2.54mm:PinSocket_1x04_P2.54mm_Vertical" H 8250 4800 50  0001 C CNN
F 3 "~" H 8250 4800 50  0001 C CNN
	1    8250 4800
	0    1    1    0   
$EndComp
$Comp
L Device:Battery_Cell BT2
U 1 1 5F5BB3E8
P 4900 5550
F 0 "BT2" H 5018 5646 50  0000 L CNN
F 1 "Battery_Cell" H 5018 5555 50  0000 L CNN
F 2 "BatteryHolder:BatteryHolder_Nayad_3001_1x12mm" V 4900 5610 50  0001 C CNN
F 3 "~" V 4900 5610 50  0001 C CNN
	1    4900 5550
	1    0    0    -1  
$EndComp
Wire Wire Line
	2100 5950 2300 5950
Wire Wire Line
	2100 5700 1800 5700
Wire Wire Line
	2100 5700 2100 5950
$Comp
L Device:R R2
U 1 1 5F663D2A
P 1300 5100
F 0 "R2" V 1300 5050 50  0000 L CNN
F 1 "4.7k" V 1200 5050 50  0000 L CNN
F 2 "Resistor_THT:R_Axial_DIN0207_L6.3mm_D2.5mm_P10.16mm_Horizontal" V 1230 5100 50  0001 C CNN
F 3 "~" H 1300 5100 50  0001 C CNN
	1    1300 5100
	1    0    0    -1  
$EndComp
Wire Wire Line
	1200 5550 1200 5400
Wire Wire Line
	1800 5700 1800 5850
Wire Wire Line
	950  5850 950  5950
Connection ~ 1800 5850
Wire Wire Line
	1800 5850 1800 6750
NoConn ~ 3700 5550
NoConn ~ 3700 5650
NoConn ~ 3700 5750
NoConn ~ 3700 5850
NoConn ~ 3700 5950
NoConn ~ 3700 6050
NoConn ~ 3700 6150
NoConn ~ 2300 6150
NoConn ~ 2300 6050
NoConn ~ 2300 5850
NoConn ~ 2300 5750
Wire Wire Line
	10150 1700 10850 1700
Wire Wire Line
	10150 2000 10300 2000
Wire Wire Line
	10150 1800 10300 1800
Wire Wire Line
	10150 1900 10300 1900
Text Label 8550 1300 2    50   ~ 0
VP
Text Label 8550 1800 2    50   ~ 0
33
Text Label 8550 1900 2    50   ~ 0
25
Text Label 8550 2000 2    50   ~ 0
26
Wire Wire Line
	1200 5550 1300 5550
Wire Wire Line
	950  5850 1800 5850
Wire Wire Line
	1300 4950 1300 4800
Wire Wire Line
	1300 4800 1150 4800
Wire Wire Line
	1300 5250 1300 5550
Connection ~ 1300 5550
$Comp
L power:+3V3 #PWR0118
U 1 1 5FD8E736
P 9450 4700
F 0 "#PWR0118" H 9450 4550 50  0001 C CNN
F 1 "+3V3" H 9465 4873 50  0000 C CNN
F 2 "" H 9450 4700 50  0001 C CNN
F 3 "" H 9450 4700 50  0001 C CNN
	1    9450 4700
	1    0    0    -1  
$EndComp
Wire Wire Line
	2200 6300 2200 5650
Wire Wire Line
	2200 5650 2300 5650
Wire Wire Line
	1300 5550 2300 5550
Connection ~ 1300 4800
Connection ~ 2100 5700
Wire Wire Line
	3800 6300 2200 6300
Wire Wire Line
	2200 5250 2300 5250
Connection ~ 2200 5250
Wire Wire Line
	2200 5200 2200 5250
Wire Wire Line
	2200 4800 3700 4800
Connection ~ 2200 4800
Wire Wire Line
	2200 4900 2200 4800
Wire Wire Line
	1300 4800 2200 4800
$Comp
L Device:R R3
U 1 1 5F6657AD
P 2200 5050
F 0 "R3" V 2200 5000 50  0000 L CNN
F 1 "4.7k" V 2300 5000 50  0000 L CNN
F 2 "Resistor_THT:R_Axial_DIN0207_L6.3mm_D2.5mm_P10.16mm_Horizontal" V 2130 5050 50  0001 C CNN
F 3 "~" H 2200 5050 50  0001 C CNN
	1    2200 5050
	1    0    0    -1  
$EndComp
Wire Wire Line
	3800 5450 3800 6300
Wire Wire Line
	3700 5450 3800 5450
Wire Wire Line
	3700 5250 3700 4800
NoConn ~ 2300 5450
Wire Wire Line
	2100 5350 2100 5700
Wire Wire Line
	2300 5350 2100 5350
$Comp
L pcf2129at_2,518_2:PCF2129AT_2,518 IC1
U 1 1 5F5C7A82
P 2300 5250
F 0 "IC1" H 3000 5515 50  0000 C CNN
F 1 "PCF2129AT_2,518" H 3000 5424 50  0000 C CNN
F 2 "PCF2129AT:SOIC127P1032X265-20N" H 3550 5350 50  0001 L CNN
F 3 "http://www.nxp.com/docs/en/data-sheet/PCF2129.pdf" H 3550 5250 50  0001 L CNN
F 4 "Real Time Clock RTC IC" H 3550 5150 50  0001 L CNN "Description"
F 5 "2.65" H 3550 5050 50  0001 L CNN "Height"
F 6 "771-PCF2129AT/2,518" H 3550 4950 50  0001 L CNN "Mouser Part Number"
F 7 "https://www.mouser.co.uk/ProductDetail/NXP-Semiconductors/PCF2129AT-2518?qs=O0BhuZj9Wkxhj0B06tCOcg%3D%3D" H 3550 4850 50  0001 L CNN "Mouser Price/Stock"
F 8 "NXP" H 3550 4750 50  0001 L CNN "Manufacturer_Name"
F 9 "PCF2129AT/2,518" H 3550 4650 50  0001 L CNN "Manufacturer_Part_Number"
	1    2300 5250
	1    0    0    -1  
$EndComp
$Comp
L Connector_Generic:Conn_01x03 J4
U 1 1 5F5E3B34
P 1900 3950
F 0 "J4" H 2150 3850 50  0000 C CNN
F 1 "SensorIN" H 2150 3950 50  0000 C CNN
F 2 "Connector_PinSocket_2.54mm:PinSocket_1x03_P2.54mm_Vertical" H 1900 3950 50  0001 C CNN
F 3 "~" H 1900 3950 50  0001 C CNN
	1    1900 3950
	-1   0    0    1   
$EndComp
Wire Wire Line
	2100 3950 2850 3950
$Comp
L power:GND #PWR0114
U 1 1 5F57F0F7
P 2850 3950
F 0 "#PWR0114" H 2850 3700 50  0001 C CNN
F 1 "GND" V 2855 3822 50  0000 R CNN
F 2 "" H 2850 3950 50  0001 C CNN
F 3 "" H 2850 3950 50  0001 C CNN
	1    2850 3950
	1    0    0    -1  
$EndComp
$Comp
L power:+3.3V #PWR0113
U 1 1 5F57EEF1
P 2450 4050
F 0 "#PWR0113" H 2450 3900 50  0001 C CNN
F 1 "+3.3V" V 2465 4178 50  0000 L CNN
F 2 "" H 2450 4050 50  0001 C CNN
F 3 "" H 2450 4050 50  0001 C CNN
	1    2450 4050
	0    1    1    0   
$EndComp
Wire Wire Line
	2100 4050 2450 4050
Text Label 2450 3850 0    50   ~ 0
sensor_data
Wire Wire Line
	2100 3850 2450 3850
Wire Wire Line
	2000 5250 2200 5250
Text Label 2000 5250 2    50   ~ 0
RTC_SCL
Wire Wire Line
	6450 2550 7100 2550
Wire Wire Line
	6450 2950 7100 2950
$Comp
L Device:CP C2
U 1 1 601189AA
P 4250 5500
F 0 "C2" H 4368 5546 50  0000 L CNN
F 1 "100nF" H 4368 5455 50  0000 L CNN
F 2 "Capacitor_THT:CP_Radial_D4.0mm_P2.00mm" H 4288 5350 50  0001 C CNN
F 3 "~" H 4250 5500 50  0001 C CNN
	1    4250 5500
	1    0    0    -1  
$EndComp
Wire Wire Line
	3700 5350 4250 5350
Connection ~ 4250 5350
Wire Wire Line
	4250 5350 4900 5350
Wire Wire Line
	4900 5650 4250 5650
Wire Wire Line
	4250 5650 4250 6750
Wire Wire Line
	4250 6750 1800 6750
Connection ~ 4250 5650
$EndSCHEMATC
