
(module MODULE_ESP32-DEVKITC-32D (layer F.Cu) (tedit 5F565F12)
  (descr "")
  (fp_text reference REF** (at -10.829175 -28.446045 0) (layer F.SilkS)
    (effects (font (size 1.00038582677 1.00038582677) (thickness 0.015)))
  )
  (fp_text value MODULE_ESP32-DEVKITC-32D (at 1.24136 28.294535 0) (layer F.Fab)
    (effects (font (size 1.00104724409 1.00104724409) (thickness 0.015)))
  )
  (fp_line (start -13.95 -27.15) (end 13.95 -27.15) (layer F.Fab) (width 0.127))
  (fp_line (start 13.95 -27.15) (end 13.95 27.25) (layer F.Fab) (width 0.127))
  (fp_line (start 13.95 27.25) (end -13.95 27.25) (layer F.Fab) (width 0.127))
  (fp_line (start -13.95 27.25) (end -13.95 -27.15) (layer F.Fab) (width 0.127))
  (fp_line (start -13.95 27.25) (end -13.95 -27.15) (layer F.SilkS) (width 0.127))
  (fp_line (start -13.95 -27.15) (end 13.95 -27.15) (layer F.SilkS) (width 0.127))
  (fp_line (start 13.95 -27.15) (end 13.95 27.25) (layer F.SilkS) (width 0.127))
  (fp_line (start 13.95 27.25) (end -13.95 27.25) (layer F.SilkS) (width 0.127))
  (fp_line (start -14.2 -27.4) (end 14.2 -27.4) (layer F.CrtYd) (width 0.05))
  (fp_line (start 14.2 -27.4) (end 14.2 27.5) (layer F.CrtYd) (width 0.05))
  (fp_line (start 14.2 27.5) (end -14.2 27.5) (layer F.CrtYd) (width 0.05))
  (fp_line (start -14.2 27.5) (end -14.2 -27.4) (layer F.CrtYd) (width 0.05))
  (fp_circle (center -14.6 -19.9) (end -14.46 -19.9) (layer F.Fab) (width 0.28))
  (fp_circle (center -14.6 -19.9) (end -14.46 -19.9) (layer F.Fab) (width 0.28))
  (pad 1 thru_hole rect (at -12.7 -19.76) (size 1.56 1.56) (drill 1.04) (layers *.Cu *.Mask))
  (pad 2 thru_hole circle (at -12.7 -17.22) (size 1.56 1.56) (drill 1.04) (layers *.Cu *.Mask))
  (pad 19 thru_hole circle (at -12.7 25.96) (size 1.56 1.56) (drill 1.04) (layers *.Cu *.Mask))
  (pad 3 thru_hole circle (at -12.7 -14.68) (size 1.56 1.56) (drill 1.04) (layers *.Cu *.Mask))
  (pad 4 thru_hole circle (at -12.7 -12.14) (size 1.56 1.56) (drill 1.04) (layers *.Cu *.Mask))
  (pad 5 thru_hole circle (at -12.7 -9.6) (size 1.56 1.56) (drill 1.04) (layers *.Cu *.Mask))
  (pad 6 thru_hole circle (at -12.7 -7.06) (size 1.56 1.56) (drill 1.04) (layers *.Cu *.Mask))
  (pad 7 thru_hole circle (at -12.7 -4.52) (size 1.56 1.56) (drill 1.04) (layers *.Cu *.Mask))
  (pad 8 thru_hole circle (at -12.7 -1.98) (size 1.56 1.56) (drill 1.04) (layers *.Cu *.Mask))
  (pad 9 thru_hole circle (at -12.7 0.56) (size 1.56 1.56) (drill 1.04) (layers *.Cu *.Mask))
  (pad 10 thru_hole circle (at -12.7 3.1) (size 1.56 1.56) (drill 1.04) (layers *.Cu *.Mask))
  (pad 11 thru_hole circle (at -12.7 5.64) (size 1.56 1.56) (drill 1.04) (layers *.Cu *.Mask))
  (pad 12 thru_hole circle (at -12.7 8.18) (size 1.56 1.56) (drill 1.04) (layers *.Cu *.Mask))
  (pad 13 thru_hole circle (at -12.7 10.72) (size 1.56 1.56) (drill 1.04) (layers *.Cu *.Mask))
  (pad 14 thru_hole circle (at -12.7 13.26) (size 1.56 1.56) (drill 1.04) (layers *.Cu *.Mask))
  (pad 15 thru_hole circle (at -12.7 15.8) (size 1.56 1.56) (drill 1.04) (layers *.Cu *.Mask))
  (pad 16 thru_hole circle (at -12.7 18.34) (size 1.56 1.56) (drill 1.04) (layers *.Cu *.Mask))
  (pad 17 thru_hole circle (at -12.7 20.88) (size 1.56 1.56) (drill 1.04) (layers *.Cu *.Mask))
  (pad 18 thru_hole circle (at -12.7 23.42) (size 1.56 1.56) (drill 1.04) (layers *.Cu *.Mask))
  (pad 20 thru_hole circle (at 12.7 -19.76) (size 1.56 1.56) (drill 1.04) (layers *.Cu *.Mask))
  (pad 21 thru_hole circle (at 12.7 -17.22) (size 1.56 1.56) (drill 1.04) (layers *.Cu *.Mask))
  (pad 22 thru_hole circle (at 12.7 -14.68) (size 1.56 1.56) (drill 1.04) (layers *.Cu *.Mask))
  (pad 23 thru_hole circle (at 12.7 -12.14) (size 1.56 1.56) (drill 1.04) (layers *.Cu *.Mask))
  (pad 24 thru_hole circle (at 12.7 -9.6) (size 1.56 1.56) (drill 1.04) (layers *.Cu *.Mask))
  (pad 25 thru_hole circle (at 12.7 -7.06) (size 1.56 1.56) (drill 1.04) (layers *.Cu *.Mask))
  (pad 26 thru_hole circle (at 12.7 -4.52) (size 1.56 1.56) (drill 1.04) (layers *.Cu *.Mask))
  (pad 27 thru_hole circle (at 12.7 -1.98) (size 1.56 1.56) (drill 1.04) (layers *.Cu *.Mask))
  (pad 28 thru_hole circle (at 12.7 0.56) (size 1.56 1.56) (drill 1.04) (layers *.Cu *.Mask))
  (pad 29 thru_hole circle (at 12.7 3.1) (size 1.56 1.56) (drill 1.04) (layers *.Cu *.Mask))
  (pad 30 thru_hole circle (at 12.7 5.64) (size 1.56 1.56) (drill 1.04) (layers *.Cu *.Mask))
  (pad 31 thru_hole circle (at 12.7 8.18) (size 1.56 1.56) (drill 1.04) (layers *.Cu *.Mask))
  (pad 32 thru_hole circle (at 12.7 10.72) (size 1.56 1.56) (drill 1.04) (layers *.Cu *.Mask))
  (pad 33 thru_hole circle (at 12.7 13.26) (size 1.56 1.56) (drill 1.04) (layers *.Cu *.Mask))
  (pad 34 thru_hole circle (at 12.7 15.8) (size 1.56 1.56) (drill 1.04) (layers *.Cu *.Mask))
  (pad 35 thru_hole circle (at 12.7 18.34) (size 1.56 1.56) (drill 1.04) (layers *.Cu *.Mask))
  (pad 36 thru_hole circle (at 12.7 20.88) (size 1.56 1.56) (drill 1.04) (layers *.Cu *.Mask))
  (pad 37 thru_hole circle (at 12.7 23.42) (size 1.56 1.56) (drill 1.04) (layers *.Cu *.Mask))
  (pad 38 thru_hole circle (at 12.7 25.96) (size 1.56 1.56) (drill 1.04) (layers *.Cu *.Mask))
)